INDEX VERSION 1.131+C:\Pinakee\Eclipse_WS\.metadata\.plugins\org.eclipse.jdt.core
129076605.index
3437563922.index
917874847.index
642059074.index
2961506393.index
3037519426.index
1630181044.index
1985499495.index
1664792850.index
1312805397.index
3987400800.index
3627367919.index
2082125037.index
1086902935.index
2397689276.index
1457004017.index
4213394809.index
2330225324.index
71377131.index
1241899700.index
4186264455.index
1846917736.index
1707979694.index
2720217398.index
2353970644.index
3136195163.index
1665274337.index
2248752897.index
3375409374.index
2652171304.index
2473729746.index
706236331.index
2002141902.index
1865797976.index
3620116691.index
120627366.index
3736725855.index
1530786570.index
3252674134.index
2260866494.index
1483233810.index
2708051574.index
2087422963.index
4048835226.index
1699023727.index
2630591558.index
3621244329.index
1280038478.index
2637367573.index
3105976718.index
4236791767.index
2838173226.index
1496297859.index
1267307087.index
1095045668.index
1343629420.index
4214151382.index
1787527088.index
3486451454.index
954693909.index
4170278698.index
1472282238.index
2626319953.index
4229553139.index
88259350.index
4010592123.index
4016617753.index
3867695124.index
3793173975.index
1444769384.index
3110633069.index
2015029738.index
656409900.index
4230814756.index
3960004442.index
862212194.index
482088269.index
1146849168.index
