<?xml version="1.0" encoding="UTF-8"?>
<session version="1.0">
<refactoring comment="Delete resource &apos;teladoc_challenge&apos;" deleteContents="true" description="Delete resource &apos;teladoc_challenge&apos;" element1="/teladoc_challenge" flags="7" id="org.eclipse.ltk.core.refactoring.delete.resources" resources="1" stamp="1635056490655"/>
</session>